<?xml version="1.0" encoding="UTF-8"?>
<svg width="752pt" height="752pt" version="1.1" viewBox="0 0 752 752" xmlns="http://www.w3.org/2000/svg">
 <g fill="#010101">
  <path d="m598.86 542.45h-13.23l-0.003906-301.56c0-4.1797-2.7852-6.9648-6.9648-6.9648h-43.875c-4.1797 0-6.9648 2.7852-6.9648 6.9648v301.56h-23.68l0.003907-245.84c0-4.1797-2.7852-6.9648-6.9648-6.9648h-43.875c-4.1797 0-6.9648 2.7852-6.9648 6.9648v245.84h-22.984v-190.82c0-4.1797-2.7852-6.9648-6.9648-6.9648h-43.875c-4.1797 0-6.9648 2.7852-6.9648 6.9648v190.82h-22.285v-141.38c0-4.1797-2.7852-6.9648-6.9648-6.9648h-39.695c-4.1797 0-6.9648 2.7852-6.9648 6.9648l-0.003906 51.535c-25.07-20.895-59.895-25.77-90.539-12.535l0.003907-267.43 26.465 32.734c2.0898 2.7852 6.9648 3.4805 9.75 0.69531 2.7852-2.0898 3.4805-6.9648 0.69531-9.75l-39-47.359c-1.3945-2.0898-2.7852-2.7852-4.875-2.7852s-4.1797 0.69531-5.5703 2.0898l-39.004 48.055c-2.0859 2.7852-2.0859 7.6602 1.3945 9.75 2.7852 2.7852 6.9648 2.0898 9.75-0.69922l26.465-32.734v275.09c-22.984 15.32-37.609 41.785-37.609 71.734 0 47.363 38.305 86.363 86.359 86.363 34.125 0 64.074-20.195 78-49.449h286.93c4.1797 0 6.9648-2.7852 6.9648-6.9648 0.003906-3.4805-2.7812-6.9609-6.9609-6.9609zm-57.109-294.6h29.945v294.59h-29.945zm-81.484 55.715h29.945v238.88h-29.945zm-80.785 55.02h29.945v183.86h-29.945zm-50.145 49.449v134.41h-11.84c2.0898-7.6602 3.4805-15.32 3.4805-22.984 0-19.5-6.2695-37.609-17.41-52.234v-59.199zm-95.414 183.86c-40.391 0-72.43-32.734-72.43-73.125 0-40.395 32.734-73.125 72.43-73.125 40.395 0 72.43 32.734 72.43 73.125 0 40.391-32.73 73.125-72.43 73.125z"/>
  <path d="m278.5 339.09 234-151.13-13.23 39.695c-1.3945 3.4805 0.69531 7.6602 4.1797 9.0547 3.4805 1.3945 7.6602-0.69531 9.0547-4.1797l18.805-58.5c0.69531-2.0898 0.69531-4.1797-0.69531-6.2695-1.3945-2.0898-2.7852-2.7852-4.875-3.4805l-61.285-6.9648c-3.4805-0.69531-6.9648 2.0898-7.6602 6.2695-0.69531 3.4805 2.0898 6.9648 6.2695 7.6602l41.785 4.875-234.01 151.13c-3.4805 2.0898-4.1797 6.2695-2.0898 9.75 2.7852 2.7852 6.9648 4.1797 9.75 2.0898z"/>
  <path d="m240.2 509.72-0.69531-27.16c7.6602 1.3945 13.93 4.1797 20.195 8.3555l9.0547-13.23c-9.0547-6.2695-19.5-9.75-29.945-11.145l-0.003907-6.9648h-9.0547v6.9648c-9.0547 0.69531-16.715 3.4805-22.285 8.3555-4.875 5.5742-7.6602 12.539-7.6602 20.895 0 8.3555 2.7852 14.625 7.6602 18.805s13.23 7.6602 23.68 10.445v27.859c-8.3555-1.3945-16.715-5.5703-25.07-12.535l-10.445 12.535c10.445 9.0547 22.285 14.625 35.52 16.02v10.445h9.0547v-10.445c9.75-0.69531 17.41-3.4805 23.68-8.3555 6.2695-5.5703 9.0547-11.84 9.0547-20.195 0-8.3555-2.7852-14.625-7.6602-19.5-5.5781-5.5781-13.934-9.0586-25.078-11.148zm-9.75-2.7852c-5.5703-1.3945-9.0547-3.4805-11.145-5.5703-2.0898-2.0898-2.7852-4.1797-2.7852-7.6602s1.3945-5.5703 3.4805-8.3555c2.7852-2.0898 5.5703-3.4805 10.445-3.4805zm20.195 41.785c-2.7852 2.0898-6.2695 3.4805-11.145 4.1797v-25.77c5.5703 1.3945 9.75 3.4805 11.84 5.5703 2.0898 2.0898 3.4805 4.875 3.4805 7.6602 0.003906 3.4844-1.3906 6.2695-4.1758 8.3594z"/>
 </g>
</svg>
