<?xml version="1.0"?>
<svg width="406.985" height="406.985" xmlns="http://www.w3.org/2000/svg" xmlns:svg="http://www.w3.org/2000/svg">

 <g class="layer">
  <title>Layer 1</title>
  <g id="svg_1">
   <path d="m349.176,0l-274.982,0c-17.852,0 -32.371,14.523 -32.371,32.375l0,25.614c-9.166,0.884 -16.382,8.544 -16.382,17.94c0,9.398 7.216,17.05 16.382,17.937l0,20.581c-9.166,0.892 -16.382,8.544 -16.382,17.942c0,9.396 7.216,17.051 16.382,17.937l0,21.93c-9.166,0.886 -16.382,8.542 -16.382,17.937c0,9.398 7.216,17.051 16.382,17.94l0,20.586c-9.166,0.885 -16.382,8.541 -16.382,17.937c0,9.401 7.216,17.051 16.382,17.948l0,20.301c-9.166,0.892 -16.382,8.548 -16.382,17.942c0,9.396 7.216,17.052 16.382,17.938l0,53.827c0,17.854 14.526,32.372 32.371,32.372l274.982,0c17.85,0 32.367,-14.522 32.367,-32.372l0,-342.242c0,-17.847 -14.517,-32.37 -32.367,-32.37zm-307.358,311.532c-4.062,-0.808 -7.132,-4.399 -7.132,-8.694c0,-4.296 3.07,-7.886 7.132,-8.689l0,17.383zm0,-56.187c-4.062,-0.81 -7.132,-4.399 -7.132,-8.689c0,-4.296 3.07,-7.879 7.132,-8.689l0,17.378zm0,-56.463c-4.062,-0.81 -7.132,-4.396 -7.132,-8.689c0,-4.298 3.07,-7.885 7.132,-8.689l0,17.378zm0,-57.808c-4.062,-0.808 -7.132,-4.392 -7.132,-8.685c0,-4.298 3.07,-7.885 7.132,-8.692l0,17.377zm0,-56.458c-4.062,-0.812 -7.132,-4.394 -7.132,-8.692c0,-4.298 3.07,-7.882 7.132,-8.689l0,17.381zm321.23,289.997c0,7.644 -6.229,13.871 -13.872,13.871l-274.982,0c-7.648,0 -13.873,-6.228 -13.873,-13.871l0,-53.658l13.71,0c1.598,6.178 7.155,10.758 13.841,10.758c7.921,0 14.343,-6.419 14.343,-14.335c0,-7.925 -6.422,-14.349 -14.343,-14.349c-5.907,0 -10.971,3.572 -13.167,8.672l-14.383,0l0,-46.934l13.71,0c1.598,6.185 7.155,10.765 13.841,10.765c7.921,0 14.343,-6.419 14.343,-14.343c0,-7.923 -6.422,-14.348 -14.343,-14.348c-5.907,0 -10.971,3.568 -13.167,8.667l-14.384,0l0,-47.2l14.131,0c2.011,5.483 7.24,9.422 13.42,9.422c7.921,0 14.343,-6.421 14.343,-14.347c0,-7.924 -6.422,-14.344 -14.343,-14.344c-6.404,0 -11.767,4.223 -13.611,10.018l-13.94,0l0,-48.559l13.772,0c1.664,6.081 7.171,10.575 13.779,10.575c7.921,0 14.343,-6.422 14.343,-14.345s-6.422,-14.344 -14.343,-14.344c-5.981,0 -11.094,3.663 -13.247,8.864l-14.304,0l0,-47.214l13.373,0c0.824,7.135 6.821,12.698 14.178,12.698c7.921,0 14.343,-6.421 14.343,-14.345c0,-7.923 -6.422,-14.344 -14.343,-14.344c-5.122,0 -9.584,2.7 -12.12,6.741l-15.431,0l0,-52.414c0,-7.647 6.224,-13.875 13.873,-13.875l274.982,0c7.643,0 13.872,6.228 13.872,13.875l0,342.243l-0.001,0zm-34.971,-291.364c0,3.833 -3.104,6.936 -6.938,6.936l-181.906,0c-3.833,0 -6.938,-3.103 -6.938,-6.936c0,-3.833 3.105,-6.938 6.938,-6.938l181.905,0c3.834,-0.007 6.939,3.099 6.939,6.938zm-22.351,56.268c0,3.833 -3.105,6.936 -6.938,6.936l-137.204,0c-3.833,0 -6.937,-3.103 -6.937,-6.936c0,-3.833 3.104,-6.938 6.937,-6.938l137.203,0c3.834,-0.006 6.939,3.099 6.939,6.938zm0,57.037c0,3.83 -3.105,6.936 -6.938,6.936l-137.204,0c-3.833,0 -6.937,-3.106 -6.937,-6.936c0,-3.833 3.104,-6.938 6.937,-6.938l137.203,0c3.834,0 6.939,3.105 6.939,6.938zm0,55.497c0,3.835 -3.105,6.938 -6.938,6.938l-137.204,0c-3.833,0 -6.937,-3.104 -6.937,-6.938c0,-3.831 3.104,-6.934 6.937,-6.934l137.203,0c3.834,-0.004 6.939,3.098 6.939,6.934zm0,58.967c0,3.829 -3.105,6.938 -6.938,6.938l-137.204,0c-3.833,0 -6.937,-3.109 -6.937,-6.938c0,-3.832 3.104,-6.938 6.937,-6.938l137.203,0c3.834,0 6.939,3.106 6.939,6.938z" fill="#7f7f7f" id="svg_2"/>
  </g>
  <g id="svg_3"/>
  <g id="svg_4"/>
  <g id="svg_5"/>
  <g id="svg_6"/>
  <g id="svg_7"/>
  <g id="svg_8"/>
  <g id="svg_9"/>
  <g id="svg_10"/>
  <g id="svg_11"/>
  <g id="svg_12"/>
  <g id="svg_13"/>
  <g id="svg_14"/>
  <g id="svg_15"/>
  <g id="svg_16"/>
  <g id="svg_17"/>
 </g>
</svg>